
\include "lilypond-book-preamble.ly"
  
\paper {
  indent = 0\mm
  line-width = 240\mm
  line-width = #(- line-width (* mm  3.000000) (* mm 1))
  line-width = 160\mm - 2.0 * 10.16\mm
  line-width = #(- line-width (* mm  3.000000) (* mm 1))
}

\layout {
  \context {
\Score
    \remove "Bar_number_engraver"
  }
}
